P 786706
R 714201
W 170979
P 619036
R 161364
I 38142
P 12464
W 708034
R 300982
P 334303
R 657901
W 268535
P 434303
R 461311
W 580206
P 738782
I 632429
I 527703
P 554332
R 754032
W 780749
W 2257
W 427620
W 202413
W 542393
W 725558
P 629015
R 816471
R 478014
R 956649
R 238867
R 481733
R 732774
R 670473
R 406437
R 490945
P 161525
R 300293
W 203807
W 596741
R 818678
I 236151
I 735987
P 797681
R 866949
P 698411
R 636424
R 730431
W 342603
R 353362
